{
  "project_info": {
    "project_number": "212116329102",
    "firebase_url": "https://push-notifications-servi-51d47.firebaseio.com",
    "project_id": "push-notifications-servi-51d47",
    "storage_bucket": "push-notifications-servi-51d47.appspot.com"
  },
  "client": [
    {
      "client_info": {
        "mobilesdk_app_id": "1:212116329102:android:25f49cf65b7d37e4",
        "android_client_info": {
          "package_name": "ch.cern.push.notifications"
        }
      },
      "oauth_client": [
        {
          "client_id": "212116329102-a2lpober1fdg6g5ojku3nllfmhqvrgik.apps.googleusercontent.com",
          "client_type": 3
        }
      ],
      "api_key": [
        {
          "current_key": "AIzaSyArVwmr9f-vJdQjCeq6hleLo8osW5ucCZA"
        }
      ],
      "services": {
        "appinvite_service": {
          "other_platform_oauth_client": [
            {
              "client_id": "212116329102-a2lpober1fdg6g5ojku3nllfmhqvrgik.apps.googleusercontent.com",
              "client_type": 3
            },
            {
              "client_id": "212116329102-o4gr6ka9a9aisut9rnket6gfm1ff48rm.apps.googleusercontent.com",
              "client_type": 2,
              "ios_info": {
                "bundle_id": "ch.cern.push.notifications"
              }
            }
          ]
        }
      }
    }
  ],
  "configuration_version": "1"
}